{
  "order":
  {
    "id": 4194317435049,
    "admin_graphql_api_id": "gid:\/\/shopify\/Order\/4194317435049",
    "app_id": 580111,
    "browser_ip": "54.169.209.220",
    "buyer_accepts_marketing": true,
    "cancel_reason":null,
    "cancelled_at":null,
    "cart_token": "a6b383464cf9eb68f23032c2227273cb",
    "checkout_id": 21376962756777,
    "checkout_token": "7e8ee3a81af9a60822265666c9446f0d",
    "client_details": {
      "accept_language": "en-US,en;q=0.9",
      "browser_height": 969,
      "browser_ip": "54.169.209.220",
      "browser_width": 1905,
      "session_hash": null,
      "user_agent":" Mozilla\/5.0 (Windows NT 10.0; Win64; x64) AppleWebKit\/537.36 (KHTML, like Gecko) Chrome\/94.0.4606.113 Safari\/537.36"
    },
    "closed_at": null,
    "confirmed": true,
    "contact_email": "purpledaph@yahoo.com.sg",
    "created_at": "2021-11-02T16:42:53+08:00",
    "currency": "SGD",
    "current_subtotal_price":"50.00",
    "current_subtotal_price_set": {
      "shop_money": {
        "amount": "50.00",
        "currency_code": "SGD"
      },
      "presentment_money": {
        "amount": "50.00",
        "currency_code": "SGD"
      }
    },
    "current_total_discounts": "0.00",
    "current_total_discounts_set": {
      "shop_money": {
        "amount": "0.00",
        "currency_code": "SGD"
      },
      "presentment_money": {
        "amount": "0.00",
        "currency_code": "SGD"
      }
    },
    "current_total_duties_set": null,
    "current_total_price": "50.00",
    "current_total_price_set": {
      "shop_money": {
        "amount": "50.00",
        "currency_code": "SGD"
      },
      "presentment_money": {
        "amount":"50.00",
        "currency_code": "SGD"
      }
    },
    "current_total_tax":"3.27",
    "current_total_tax_set": {
      "shop_money": {
        "amount": "3.27",
        "currency_code": "SGD"
      },
      "presentment_money": {
        "amount": "3.27",
        "currency_code": "SGD"
      }
    },
    "customer_locale": "en-AU",
    "device_id": null,
    "discount_codes": [],
    "email": "purpledaph@yahoo.com.sg",
    "estimated_taxes": false,
    "financial_status": "paid",
    "fulfillment_status": null,
    "gateway": "shopify_payments",
    "landing_site": "\/",
    "landing_site_ref": null,
    "location_id": null,
    "name": "#31897",
    "note": "For Andrea - enjoy the cold brews and snacks! From your WPSD angel :) ",
    "note_attributes":[
      {
        "name": "Delivery-Location-Id",
        "value": "180582"
      },
      {
        "name": "Delivery-Date",
        "value": "2021\/11\/03"
      },
      {
        "name": "Delivery-Time",
        "value": "12:30 PM - 6:30 PM"
      },
      {
        "name": "Delivery-Slot-Id",
        "value": "7606637"
      },
      {
        "name": "Checkout-Method",
        "value":"delivery"
      }
    ],
    "number": 30897,
    "order_number": 31897,
    "order_status_url": "https:\/\/bootstrapbeverages.com\/4568219737\/orders\/1b1396f8756b8a6f14351d874558e00d\/authenticate?key=06a7197ea0be50f5e5bf068fbd4346d9",
    "original_total_duties_set": null,
    "payment_gateway_names": ["shopify_payments"],
    "phone": null,
    "presentment_currency": "SGD",
    "processed_at":"2021-11-02T16:42:53+08:00",
    "processing_method":"direct",
    "reference": null,
    "referring_site": "https:\/\/www.google.com\/",
    "source_identifier": null,
    "source_name": "web",
    "source_url": null,
    "subtotal_price": "50.00",
    "subtotal_price_set": {
      "shop_money": {
        "amount":"50.00",
        "currency_code":"SGD"
      },
      "presentment_money": {
        "amount": "50.00",
        "currency_code": "SGD"
      }
    },
    "tags":"03-11-2021, 12:30 - 18:30, Local Delivery Order",
    "tax_lines": [
      {
        "price": "3.27",
        "rate": 0.07,
        "title": "GST",
        "price_set": {
          "shop_money": {
            "amount": "3.27",
            "currency_code": "SGD"
          },
          "presentment_money": {
            "amount": "3.27",
            "currency_code": "SGD"
          }
        },
        "channel_liable":false
      }
    ],
    "taxes_included": true,
    "test": false,
    "token": "1b1396f8756b8a6f14351d874558e00d",
    "total_discounts": "0.00",
    "total_discounts_set": {
      "shop_money": {
        "amount": "0.00",
        "currency_code": "SGD"
      },
      "presentment_money": {
        "amount": "0.00",
        "currency_code": "SGD"
      }
    },
    "total_line_items_price": "50.00",
    "total_line_items_price_set": {
      "shop_money": {
        "amount": "50.00",
        "currency_code":"SGD"
      },
      "presentment_money": {
        "amount": "50.00",
        "currency_code": "SGD"
      }
    },
    "total_outstanding": "0.00",
    "total_price": "50.00",
    "total_price_set": {
      "shop_money": {
        "amount": "50.00",
        "currency_code": "SGD"
      },
      "presentment_money": {
        "amount": "50.00",
        "currency_code": "SGD"
      }
    },
    "total_price_usd": "37.05",
    "total_shipping_price_set": {
      "shop_money": {
        "amount": "0.00",
        "currency_code": "SGD"
      },
      "presentment_money": {
        "amount": "0.00",
        "currency_code": "SGD"
      }
    },
    "total_tax": "3.27",
    "total_tax_set": {
      "shop_money": {
        "amount": "3.27",
        "currency_code": "SGD"
      },
      "presentment_money": {
        "amount": "3.27",
        "currency_code": "SGD"
      }
    },
    "total_tip_received": "0.00",
    "total_weight": 25000,
    "updated_at": "2021-11-02T16:58:13+08:00",
    "user_id":null,
    "billing_address": {
      "first_name": "Daphne",
      "address1": "218c Boon Lay Avenue",
      "phone": "9696 2284",
      "city": "Singapore",
      "zip": "640218",
      "province": null,
      "country": "Singapore",
      "last_name": "Lee",
      "address2": "",
      "company": "",
      "latitude": 1.3506934,
      "longitude": 103.7112507,
      "name":"Daphne Lee",
      "country_code": "SG",
      "province_code":null
    },
    "customer": {
      "id": 3072548012121,
      "email": "purpledaph@yahoo.com.sg",
      "accepts_marketing": true,
      "created_at": "2020-05-06T11:53:55+08:00",
      "updated_at": "2021-11-02T16:42:54+08:00",
      "first_name": "Daphne",
      "last_name": "Lee",
      "orders_count": 2,
      "state": "disabled",
      "total_spent": "86.00",
      "last_order_id": 4194317435049,
      "note": null,
      "verified_email": true,
      "multipass_identifier": null,
      "tax_exempt": false,
      "phone": null,
      "tags": "",
      "last_order_name": "#31897",
      "currency": "SGD",
      "accepts_marketing_updated_at": "2020-05-06T11:53:55+08:00",
      "marketing_opt_in_level": "single_opt_in",
      "tax_exemptions": [],
      "sms_marketing_consent": null,
      "admin_graphql_api_id": "gid:\/\/shopify\/Customer\/3072548012121",
      "default_address": {
        "id": 6857457008809,
        "customer_id": 3072548012121,
        "first_name": "Andrea ",
        "last_name": "Pang",
        "company": "",
        "address1": "194 Eng Kong Garden",
        "address2": "",
        "city": "Singapore",
        "province": null,
        "country": "Singapore",
        "zip": "599292",
        "phone": "9476 9038",
        "name": "Andrea  Pang",
        "province_code": null,
        "country_code": "SG",
        "country_name": "Singapore",
        "default": true
      }
    },
    "discount_applications": [],
    "fulfillments": [],
    "line_items":[
      {
        "id":10761734521001,
        "admin_graphql_api_id": "gid:\/\/shopify\/LineItem\/10761734521001",
        "fulfillable_quantity": 1,
        "fulfillment_service": "manual",
        "fulfillment_status": null,
        "gift_card": false,
        "grams": 0,
        "name": "Mix Pack - 6 Pack",
        "origin_location": {
          "id": 942626996313,
          "country_code": "SG",
          "province_code": "",
          "name": "Bootstrap Beverages",
          "address1": "5 MANDAI LINK",
          "address2": "",
          "city": "SINGAPORE",
          "zip": "728654"
        },
        "price": "35.00",
        "price_set": {
          "shop_money": {
            "amount": "35.00",
            "currency_code": "SGD"
          },
          "presentment_money": {
            "amount": "35.00",
            "currency_code": "SGD"
          }
        },
        "product_exists": true,
        "product_id": 4571174240345,
        "properties": [
          {
            "name": "_ZapietId",
            "value": "M=D\u0026L=180582\u0026D=2021-11-12T12:30:00Z"
          }
        ],
        "quantity": 1,
        "requires_shipping": true,
        "sku": "MIXPACK",
        "taxable": true,
        "title": "Mix Pack",
        "total_discount": "0.00",
        "total_discount_set": {
          "shop_money": {
            "amount": "0.00",
            "currency_code":"SGD"
          },
          "presentment_money": {
            "amount": "0.00",
            "currency_code": "SGD"
          }
        },
        "variant_id": 31823085863001,
        "variant_inventory_management": "shopify",
        "variant_title": "6 Pack",
        "vendor": "Bootstrap Beverages",
        "tax_lines": [
          {
            "channel_liable": false,
            "price": "0.00",
            "price_set": {
              "shop_money": {
                "amount": "0.00",
                "currency_code": "SGD"
              },
              "presentment_money": {
                "amount": "0.00",
                "currency_code": "SGD"
              }
            },
            "rate": 0.07,
            "title":"GST"
          }
        ],
        "duties": [],
        "discount_allocations": [
          {
            "amount": "35.00",
            "amount_set": {
              "shop_money": {
                "amount": "35.00",
                "currency_code": "SGD"
              },
              "presentment_money": {
                "amount": "35.00",
                "currency_code": "SGD"
              }
            },
            "discount_application_index": 0
          }
        ]
      }
    ],
    "payment_details": {
      "credit_card_bin": "426588",
      "avs_result_code": null,
      "cvv_result_code": "M",
      "credit_card_number": "•••• •••• •••• 5260",
      "credit_card_company":"Visa"
    },
    "payment_terms": null,
    "refunds": [],
    "shipping_address": {
      "first_name": "Andrea ",
      "address1": "194 Eng Kong Garden",
      "phone": "9476 9038",
      "city": "Singapore",
      "zip": "599292",
      "province": null,
      "country": "Singapore",
      "last_name": "Pang",
      "address2": "",
      "company": "",
      "latitude": 1.3342598,
      "longitude": 103.7697408,
      "name": "Andrea  Pang",
      "country_code": "SG",
      "province_code": null
    },
    "shipping_lines": [
      {
        "id":3549530816681,
        "carrier_identifier": null,
        "code": "Free Shipping",
        "delivery_category": null,
        "discounted_price": "0.00",
        "discounted_price_set": {
          "shop_money": {
            "amount":"0.00",
            "currency_code":"SGD"
          },
          "presentment_money": {
            "amount":"0.00",
            "currency_code": "SGD"
          }
        },
        "phone": null,
        "price": "0.00",
        "price_set": {
          "shop_money": {
            "amount": "0.00",
            "currency_code": "SGD"
          },
          "presentment_money": {
            "amount": "0.00",
            "currency_code": "SGD"
          }
        },
        "requested_fulfillment_service_id": null,
        "source": "shopify",
        "title": "Free Shipping",
        "tax_lines": [],
        "discount_allocations":[]
      }
    ]
  }
}
