{
  "address": {
    "address1": "451A Sengkang West Way",
    "address2": "#11-363",
    "cart_attributes": [
      {
        "name": "Delivery-Date",
        "value": "2022/02/05"
      },
      {
        "name": "Delivery-Time",
        "value": "10:00 AM - 4:00 PM"
      },
      {
        "name": "Delivery-Day",
        "value": "Saturday"
      }
    ],
    "cart_note": "",
    "city": "Singapore",
    "company": null,
    "country": "Singapore",
    "created_at": "2021-10-07T08:38:07",
    "customer_id": 53969275, "discount_id": null,
    "first_name": "Vernice",
    "id": 79348792,
    "last_name": "Tan",
    "note_attributes": [
      {
        "name": "Delivery-Date",
        "value": "2022/02/05"
      },
      {
        "name": "Delivery-Time",
        "value": "10:00 AM - 4:00 PM"
      },
      {
        "name": "Delivery-Day",
        "value": "Saturday"
      }
    ],
    "original_shipping_lines": [],
    "phone": "96485310",
    "presentment_currency": null,
    "province": "",
    "shipping_lines_override": null,
    "updated_at": "2021-11-04T23:31:37",
    "zip": "791451"
  }
}
