<svg width="360" height="69" viewBox="0 0 360 69" fill="none" xmlns="http://www.w3.org/2000/svg">
<g clip-path="url(#clip0_429_247)">
<path fill-rule="evenodd" clip-rule="evenodd" d="M-260 81.0001L-210.811 63.3705C-162.356 45.7409 -63.9775 10.4816 33.6667 10.4816C131.311 10.4816 229.689 45.7409 327.333 63.3706C424.977 81.0002 523.356 81.0003 571.811 81.0003L621 81.0003L621 -157L571.811 -157C523.356 -157 424.978 -157 327.333 -157C229.689 -157 131.311 -157 33.6667 -157C-63.9775 -157 -162.356 -157 -210.811 -157L-260 -157L-260 81.0001Z" fill="#EFE4C8"/>
</g>
<defs>
<clipPath id="clip0_429_247">
<rect width="360" height="69" fill="white"/>
</clipPath>
</defs>
</svg>
