<svg width="125" height="125" viewBox="0 0 125 125" fill="none" xmlns="http://www.w3.org/2000/svg">
<path fill-rule="evenodd" clip-rule="evenodd" d="M37 108.402L62.5 62.5L18.4017 34C13.0863 42.2077 10 51.9934 10 62.5C10 82.2404 20.895 99.4361 37 108.402Z" fill="#7A7A7A"/>
<path fill-rule="evenodd" clip-rule="evenodd" d="M62.5 125C97.0178 125 125 97.0178 125 62.5C125 27.9822 97.0178 0 62.5 0C27.9822 0 0 27.9822 0 62.5C0 97.0178 27.9822 125 62.5 125ZM62.5 120C94.2564 120 120 94.2564 120 62.5C120 31.3639 95.2522 6.0079 64.3537 5.02931C63.7382 5.00982 63.1202 5 62.5 5C31.3639 5 6.0079 29.7478 5.02931 60.6463C5.00982 61.2618 5 61.8798 5 62.5C5 94.2564 30.7436 120 62.5 120Z" fill="#F5F5F5"/>
<path d="M5 62.5C5 63.1694 5.01144 63.8361 5.03413 64.5H15C15.8333 64.5 17.5 64.1 17.5 62.5C17.5 60.9 15.8333 60.5 15 60.5H5.03413C5.03246 60.5488 5.03086 60.5975 5.02931 60.6463C5.00982 61.2618 5 61.8798 5 62.5Z" fill="#F5F5F5"/>
<path d="M119.966 60.5H110.034C109.201 60.5 107.534 60.9 107.534 62.5C107.534 64.1 109.201 64.5 110.034 64.5H119.966L120 62.5L119.966 60.5Z" fill="#F5F5F5"/>
<path d="M62.5 5C61.8306 5 61.1639 5.01144 60.5 5.03413V15C60.5 15.8333 60.9 17.5 62.5 17.5C64.1 17.5 64.5 15.8333 64.5 15V5.03413C64.4512 5.03246 64.4025 5.03086 64.3537 5.02931C63.7382 5.00982 63.1202 5 62.5 5Z" fill="#F5F5F5"/>
<path fill-rule="evenodd" clip-rule="evenodd" d="M125 62.5C125 97.0178 97.0178 125 62.5 125C27.9822 125 0 97.0178 0 62.5C0 27.9822 27.9822 0 62.5 0C97.0178 0 125 27.9822 125 62.5ZM120 62.5C120 93.587 95.3302 118.912 64.5 119.966L64.5 109.966C64.5 109.133 64.1 107.466 62.5 107.466C60.9 107.466 60.5 109.133 60.5 109.966L60.5 119.966C30.3336 118.935 6.06529 94.6664 5.03413 64.5C5.01144 63.8361 5 63.1694 5 62.5C5 61.8798 5.00982 61.2618 5.02931 60.6463C5.03086 60.5975 5.03246 60.5488 5.03413 60.5C6.06529 30.3336 30.3336 6.06529 60.5 5.03413C61.1639 5.01144 61.8306 5 62.5 5C63.1202 5 63.7382 5.00982 64.3537 5.02931C64.4025 5.03086 64.4512 5.03246 64.5 5.03413C95.3302 6.08798 120 31.413 120 62.5ZM64.5 119.966C63.8364 119.989 63.1691 120 62.5 120C61.8309 120 61.1636 119.989 60.5 119.966L62.5 120L64.5 119.966Z" fill="#F5F5F5"/>
<path d="M66 62.5C66 64.433 64.433 66 62.5 66C60.567 66 59 64.433 59 62.5C59 60.567 60.567 59 62.5 59C64.433 59 66 60.567 66 62.5Z" fill="#F5F5F5"/>
<path d="M41.5579 96.3768L57.0874 67.8271L60.6012 69.7385L45.0717 98.2882C44.6735 99.0202 43.5258 100.293 42.1202 99.5286C40.7147 98.7641 41.1597 97.1089 41.5579 96.3768Z" fill="#F5F5F5"/>
<path d="M30.4724 39.4511L57.5 57.5L55.2786 60.8265L28.251 42.7776C27.558 42.3148 26.3941 41.0566 27.2827 39.726C28.1713 38.3954 29.7794 38.9883 30.4724 39.4511Z" fill="#F5F5F5"/>
</svg>
