<svg width="44" height="45" viewBox="0 0 44 45" fill="none" xmlns="http://www.w3.org/2000/svg">
<g clip-path="url(#clip0)">
<path d="M41.1624 39.8328C39.9009 41.5979 38.1123 42.9529 36.0255 43.6707C35.931 43.7146 35.8256 43.7366 35.7202 43.7366C35.6184 43.7366 35.5166 43.7146 35.422 43.6743V43.6963C35.422 44.4141 34.8404 45 34.1242 45H31.3322C30.6196 45 30.0343 44.4141 30.0343 43.6963V23.5071C30.0343 22.7893 30.616 22.1997 31.3322 22.1997H34.1242C34.8367 22.1997 35.422 22.7856 35.422 23.5071V23.6316C35.5166 23.5876 35.6184 23.5657 35.7202 23.5657C35.8001 23.5657 35.8801 23.5803 35.9528 23.6023V23.606C37.5379 24.137 38.9557 25.0415 40.1045 26.2097V21.6614C40.1045 16.2085 38.2904 11.543 35.084 8.25806L33.6625 10.3931C30.7723 7.18872 26.6097 5.16724 22 5.16724C17.3612 5.16724 13.1695 7.21436 10.2793 10.459L8.55977 8.34229C5.39694 11.5906 3.60467 16.1902 3.60467 21.6614V26.8799C4.84072 25.3857 6.48394 24.2358 8.35619 23.6096V23.606C8.43253 23.5803 8.51251 23.5657 8.58886 23.5657C8.69065 23.5657 8.79608 23.5876 8.88696 23.6279V23.5034C8.88696 22.7856 9.47227 22.196 10.1848 22.196H12.9768C13.6894 22.196 14.2747 22.782 14.2747 23.5034V43.6926C14.2747 44.4104 13.6894 44.9963 12.9768 44.9963H10.1848C9.47227 44.9963 8.88696 44.4104 8.88696 43.6926V43.6707C8.79608 43.7109 8.69428 43.7329 8.58886 43.7329C8.47979 43.7329 8.378 43.7073 8.28712 43.667C6.20037 42.9492 4.41173 41.5942 3.15024 39.8291C2.48859 38.9063 1.97235 37.8735 1.63426 36.7639H0.5V21.6614C0.5 15.7031 2.91757 10.2905 6.81476 6.36475C10.712 2.43896 16.0888 0 22 0C27.9149 0 33.2917 2.43897 37.1852 6.36108C41.0824 10.2869 43.5 15.6995 43.5 21.6577V36.7639H42.6748C42.3439 37.8625 41.8277 38.9026 41.1624 39.8328Z" fill="#9F8561"/>
</g>
<defs>
<clipPath id="clip0">
<rect width="43" height="45" fill="white" transform="translate(0.5)"/>
</clipPath>
</defs>
</svg>
